%YAML 1.1
%TAG !u! tag:unity3d.com,2011:
--- !u!114 &11400000
MonoBehaviour:
  m_ObjectHideFlags: 0
  m_CorrespondingSourceObject: {fileID: 0}
  m_PrefabInstance: {fileID: 0}
  m_PrefabAsset: {fileID: 0}
  m_GameObject: {fileID: 0}
  m_Enabled: 1
  m_EditorHideFlags: 0
  m_Script: {fileID: 11500000, guid: b5f12057be7048e782d874eca61d9ada, type: 3}
  m_Name: ThemesSettings
  m_EditorClassIdentifier: 
  database: {fileID: 11400000, guid: f9bd2ca8829258c40a20b8a959e3c0ae, type: 2}
  AutoSave: 1
