%YAML 1.1
%TAG !u! tag:unity3d.com,2011:
--- !u!114 &11400000
MonoBehaviour:
  m_ObjectHideFlags: 0
  m_CorrespondingSourceObject: {fileID: 0}
  m_PrefabInstance: {fileID: 0}
  m_PrefabAsset: {fileID: 0}
  m_GameObject: {fileID: 0}
  m_Enabled: 1
  m_EditorHideFlags: 0
  m_Script: {fileID: 11500000, guid: 889794c411054f7ca8e6fbdc6728c846, type: 3}
  m_Name: _UIViewDatabase
  m_EditorClassIdentifier: 
  DatabaseType: 2
  CategoryNames:
  - Custom
  - Example
  - General
  - Walls
  Categories:
  - {fileID: 11400000, guid: b01e98f4801f7124ba39e1dac4debf90, type: 2}
  - {fileID: 11400000, guid: 746a567545774ec40abcbe51c1a98fcc, type: 2}
  - {fileID: 11400000, guid: 5ad9bdaad5b1b844fa6d20a640ff078a, type: 2}
